System.vcd
$date
	Tue Oct 05 10:36:37 2021
$end
$version
	ModelSim Version 10.5b
$end
$timescale
	1ps
$end

$scope module System_tb $end
$var parameter 32 ! CLk_PERIOD $end
$var parameter 32 " Num_Test_Cases $end
$var parameter 32 # DATA_BUS_WIDTH $end
$var parameter 32 $ ADDR_BUS_WIDTH $end
$var parameter 32 % ALU_FUN_WORD $end
$var parameter 32 & NUM_LOAD_REG_FILE $end
$var parameter 32 ' MAX_NUM_OPERATIONS $end
$var parameter 32 ( MEM_TEST_VECTOR_WIDTH $end
$var parameter 32 ) MEM_TEST_VECTOR_DEPTH $end
$var parameter 32 * MEM_EXPECTED_OUTPUTS_WIDTH $end
$var parameter 32 + MEM_EXPECTED_OUTPUTS_DEPTH $end
$var integer 32 , i $end
$var integer 32 - bit_index $end
$var integer 32 . reg_index $end
$var integer 32 / oper_output_index $end
$var reg 1 0 TEST_CASE_FAILED $end
$var reg 1 1 PARITY_ENABLE $end
$var reg 4 2 NUM_OPERATIONS [3:0] $end
$var reg 1 3 CONTROL_EN_TB $end
$var reg 1 4 CLKDIV_EN_TB $end
$var reg 1 5 CLK_TB $end
$var reg 1 6 RST_TB $end
$var reg 1 7 WrEn_TB $end
$var reg 1 8 RdEn_TB $end
$var reg 4 9 Address_TB [3:0] $end
$var reg 8 : WrData_TB [7:0] $end
$var wire 1 ; RdData_TB [7] $end
$var wire 1 < RdData_TB [6] $end
$var wire 1 = RdData_TB [5] $end
$var wire 1 > RdData_TB [4] $end
$var wire 1 ? RdData_TB [3] $end
$var wire 1 @ RdData_TB [2] $end
$var wire 1 A RdData_TB [1] $end
$var wire 1 B RdData_TB [0] $end
$var wire 1 C SYS_OUT_TB $end
$var wire 1 D SYS_VLD_TB $end
$var wire 1 E DONE_FLAG_TB $end

$scope task Initialize $end
$upscope $end

$scope task Reset $end
$upscope $end

$scope task do_write_test_case $end
$var reg 21 F TEST_CASE [20:0] $end
$upscope $end

$scope task do_check_output $end
$var reg 11 G EXPECTED_OUTPUT [10:0] $end
$var integer 32 H OPER_NUM $end
$var integer 32 I Num_Frame $end
$upscope $end

$scope module DUT $end
$var parameter 32 J WIDTH $end
$var parameter 32 K ADDR $end
$var parameter 32 L ALU_FUN_WD $end
$var wire 1 M CONTROL_EN $end
$var wire 1 N CLKDIV_EN $end
$var wire 1 O CLK $end
$var wire 1 P RST $end
$var wire 1 Q WrEn $end
$var wire 1 R RdEn $end
$var wire 1 S Address [3] $end
$var wire 1 T Address [2] $end
$var wire 1 U Address [1] $end
$var wire 1 V Address [0] $end
$var wire 1 W WrData [7] $end
$var wire 1 X WrData [6] $end
$var wire 1 Y WrData [5] $end
$var wire 1 Z WrData [4] $end
$var wire 1 [ WrData [3] $end
$var wire 1 \ WrData [2] $end
$var wire 1 ] WrData [1] $end
$var wire 1 ^ WrData [0] $end
$var wire 1 ; RdData [7] $end
$var wire 1 < RdData [6] $end
$var wire 1 = RdData [5] $end
$var wire 1 > RdData [4] $end
$var wire 1 ? RdData [3] $end
$var wire 1 @ RdData [2] $end
$var wire 1 A RdData [1] $end
$var wire 1 B RdData [0] $end
$var wire 1 C SYS_OUT $end
$var wire 1 D SYS_VLD $end
$var wire 1 E DONE_FLAG $end
$var wire 1 _ ALU_A [7] $end
$var wire 1 ` ALU_A [6] $end
$var wire 1 a ALU_A [5] $end
$var wire 1 b ALU_A [4] $end
$var wire 1 c ALU_A [3] $end
$var wire 1 d ALU_A [2] $end
$var wire 1 e ALU_A [1] $end
$var wire 1 f ALU_A [0] $end
$var wire 1 g ALU_B [7] $end
$var wire 1 h ALU_B [6] $end
$var wire 1 i ALU_B [5] $end
$var wire 1 j ALU_B [4] $end
$var wire 1 k ALU_B [3] $end
$var wire 1 l ALU_B [2] $end
$var wire 1 m ALU_B [1] $end
$var wire 1 n ALU_B [0] $end
$var wire 1 o ALU_Config0 [7] $end
$var wire 1 p ALU_Config0 [6] $end
$var wire 1 q ALU_Config0 [5] $end
$var wire 1 r ALU_Config0 [4] $end
$var wire 1 s ALU_Config0 [3] $end
$var wire 1 t ALU_Config0 [2] $end
$var wire 1 u ALU_Config0 [1] $end
$var wire 1 v ALU_Config0 [0] $end
$var wire 1 w ALU_Config1 [7] $end
$var wire 1 x ALU_Config1 [6] $end
$var wire 1 y ALU_Config1 [5] $end
$var wire 1 z ALU_Config1 [4] $end
$var wire 1 { ALU_Config1 [3] $end
$var wire 1 | ALU_Config1 [2] $end
$var wire 1 } ALU_Config1 [1] $end
$var wire 1 ~ ALU_Config1 [0] $end
$var wire 1 !! UART_Config [7] $end
$var wire 1 "! UART_Config [6] $end
$var wire 1 #! UART_Config [5] $end
$var wire 1 $! UART_Config [4] $end
$var wire 1 %! UART_Config [3] $end
$var wire 1 &! UART_Config [2] $end
$var wire 1 '! UART_Config [1] $end
$var wire 1 (! UART_Config [0] $end
$var wire 1 )! CLKDIV_Config [7] $end
$var wire 1 *! CLKDIV_Config [6] $end
$var wire 1 +! CLKDIV_Config [5] $end
$var wire 1 ,! CLKDIV_Config [4] $end
$var wire 1 -! CLKDIV_Config [3] $end
$var wire 1 .! CLKDIV_Config [2] $end
$var wire 1 /! CLKDIV_Config [1] $end
$var wire 1 0! CLKDIV_Config [0] $end
$var wire 1 1! ALU_Enable $end
$var wire 1 2! CLKG_EN $end
$var wire 1 3! ALU_CLK $end
$var wire 1 4! ALU_VLD $end
$var wire 1 5! UART_CLK $end
$var wire 1 6! UART_CLK_div $end
$var wire 1 7! ALU_OUT [7] $end
$var wire 1 8! ALU_OUT [6] $end
$var wire 1 9! ALU_OUT [5] $end
$var wire 1 :! ALU_OUT [4] $end
$var wire 1 ;! ALU_OUT [3] $end
$var wire 1 <! ALU_OUT [2] $end
$var wire 1 =! ALU_OUT [1] $end
$var wire 1 >! ALU_OUT [0] $end
$var wire 1 ?! ALU_FUN [3] $end
$var wire 1 @! ALU_FUN [2] $end
$var wire 1 A! ALU_FUN [1] $end
$var wire 1 B! ALU_FUN [0] $end

$scope module U0_FSM_Controller $end
$var wire 1 M Enable $end
$var wire 1 o ALU_Config0 [7] $end
$var wire 1 p ALU_Config0 [6] $end
$var wire 1 q ALU_Config0 [5] $end
$var wire 1 r ALU_Config0 [4] $end
$var wire 1 s ALU_Config0 [3] $end
$var wire 1 t ALU_Config0 [2] $end
$var wire 1 u ALU_Config0 [1] $end
$var wire 1 v ALU_Config0 [0] $end
$var wire 1 w ALU_Config1 [7] $end
$var wire 1 x ALU_Config1 [6] $end
$var wire 1 y ALU_Config1 [5] $end
$var wire 1 z ALU_Config1 [4] $end
$var wire 1 { ALU_Config1 [3] $end
$var wire 1 | ALU_Config1 [2] $end
$var wire 1 } ALU_Config1 [1] $end
$var wire 1 ~ ALU_Config1 [0] $end
$var wire 1 D UART_Busy $end
$var wire 1 P RST $end
$var wire 1 O CLK $end
$var wire 1 1! ALU_Enable $end
$var wire 1 ?! ALU_FUN [3] $end
$var wire 1 @! ALU_FUN [2] $end
$var wire 1 A! ALU_FUN [1] $end
$var wire 1 B! ALU_FUN [0] $end
$var wire 1 2! CLKG_EN $end
$var wire 1 E Done_Flag $end
$var wire 1 C! Prev_Check_State [4] $end
$var wire 1 D! Prev_Check_State [3] $end
$var wire 1 E! Prev_Check_State [2] $end
$var wire 1 F! Prev_Check_State [1] $end
$var wire 1 G! Prev_Check_State [0] $end
$var wire 1 H! Save_Enable $end
$var wire 1 I! Saved_State [4] $end
$var wire 1 J! Saved_State [3] $end
$var wire 1 K! Saved_State [2] $end
$var wire 1 L! Saved_State [1] $end
$var wire 1 M! Saved_State [0] $end

$scope module SaveUnit $end
$var wire 1 H! Save_Enable $end
$var wire 1 C! Prev_Check_State [4] $end
$var wire 1 D! Prev_Check_State [3] $end
$var wire 1 E! Prev_Check_State [2] $end
$var wire 1 F! Prev_Check_State [1] $end
$var wire 1 G! Prev_Check_State [0] $end
$var wire 1 P RST $end
$var wire 1 O CLK $end
$var reg 5 N! Saved_State [4:0] $end
$upscope $end

$scope module FSMUnit $end
$var parameter 5 O! IDLE_STATE $end
$var parameter 5 P! Wait_STATE $end
$var parameter 5 Q! Check_0 $end
$var parameter 5 R! Check_1 $end
$var parameter 5 S! Check_2 $end
$var parameter 5 T! Check_3 $end
$var parameter 5 U! Check_4 $end
$var parameter 5 V! Check_5 $end
$var parameter 5 W! Check_6 $end
$var parameter 5 X! Check_7 $end
$var parameter 5 Y! Check_8 $end
$var parameter 5 Z! Check_9 $end
$var parameter 5 [! Check_10 $end
$var parameter 5 \! Check_11 $end
$var parameter 5 ]! Check_12 $end
$var parameter 5 ^! Check_13 $end
$var parameter 5 _! Check_14 $end
$var parameter 5 `! Check_15 $end
$var parameter 5 a! ALU_CALC_CYCLE $end
$var wire 1 M Enable $end
$var wire 1 o ALU_Config0 [7] $end
$var wire 1 p ALU_Config0 [6] $end
$var wire 1 q ALU_Config0 [5] $end
$var wire 1 r ALU_Config0 [4] $end
$var wire 1 s ALU_Config0 [3] $end
$var wire 1 t ALU_Config0 [2] $end
$var wire 1 u ALU_Config0 [1] $end
$var wire 1 v ALU_Config0 [0] $end
$var wire 1 w ALU_Config1 [7] $end
$var wire 1 x ALU_Config1 [6] $end
$var wire 1 y ALU_Config1 [5] $end
$var wire 1 z ALU_Config1 [4] $end
$var wire 1 { ALU_Config1 [3] $end
$var wire 1 | ALU_Config1 [2] $end
$var wire 1 } ALU_Config1 [1] $end
$var wire 1 ~ ALU_Config1 [0] $end
$var wire 1 D UART_Busy $end
$var wire 1 P RST $end
$var wire 1 O CLK $end
$var wire 1 I! Saved_State [4] $end
$var wire 1 J! Saved_State [3] $end
$var wire 1 K! Saved_State [2] $end
$var wire 1 L! Saved_State [1] $end
$var wire 1 M! Saved_State [0] $end
$var reg 1 b! ALU_Enable $end
$var reg 4 c! ALU_FUN [3:0] $end
$var reg 1 d! CLKG_EN $end
$var reg 1 e! Done_Flag $end
$var reg 1 f! Save_Enable $end
$var reg 5 g! Prev_Check_State [4:0] $end
$var reg 5 h! Current_state [4:0] $end
$var reg 5 i! Next_state [4:0] $end
$upscope $end
$upscope $end

$scope module U0_RegFile $end
$var parameter 32 j! Data_bus_width $end
$var parameter 32 k! Address_bus_width $end
$var parameter 32 l! memory_depth $end
$var wire 1 W WrData [7] $end
$var wire 1 X WrData [6] $end
$var wire 1 Y WrData [5] $end
$var wire 1 Z WrData [4] $end
$var wire 1 [ WrData [3] $end
$var wire 1 \ WrData [2] $end
$var wire 1 ] WrData [1] $end
$var wire 1 ^ WrData [0] $end
$var wire 1 S Address [3] $end
$var wire 1 T Address [2] $end
$var wire 1 U Address [1] $end
$var wire 1 V Address [0] $end
$var wire 1 Q WrEn $end
$var wire 1 R RdEn $end
$var wire 1 O CLK $end
$var wire 1 P RST $end
$var reg 8 m! RdData [7:0] $end
$var wire 1 _ REG0 [7] $end
$var wire 1 ` REG0 [6] $end
$var wire 1 a REG0 [5] $end
$var wire 1 b REG0 [4] $end
$var wire 1 c REG0 [3] $end
$var wire 1 d REG0 [2] $end
$var wire 1 e REG0 [1] $end
$var wire 1 f REG0 [0] $end
$var wire 1 g REG1 [7] $end
$var wire 1 h REG1 [6] $end
$var wire 1 i REG1 [5] $end
$var wire 1 j REG1 [4] $end
$var wire 1 k REG1 [3] $end
$var wire 1 l REG1 [2] $end
$var wire 1 m REG1 [1] $end
$var wire 1 n REG1 [0] $end
$var wire 1 o REG2 [7] $end
$var wire 1 p REG2 [6] $end
$var wire 1 q REG2 [5] $end
$var wire 1 r REG2 [4] $end
$var wire 1 s REG2 [3] $end
$var wire 1 t REG2 [2] $end
$var wire 1 u REG2 [1] $end
$var wire 1 v REG2 [0] $end
$var wire 1 w REG3 [7] $end
$var wire 1 x REG3 [6] $end
$var wire 1 y REG3 [5] $end
$var wire 1 z REG3 [4] $end
$var wire 1 { REG3 [3] $end
$var wire 1 | REG3 [2] $end
$var wire 1 } REG3 [1] $end
$var wire 1 ~ REG3 [0] $end
$var wire 1 !! REG4 [7] $end
$var wire 1 "! REG4 [6] $end
$var wire 1 #! REG4 [5] $end
$var wire 1 $! REG4 [4] $end
$var wire 1 %! REG4 [3] $end
$var wire 1 &! REG4 [2] $end
$var wire 1 '! REG4 [1] $end
$var wire 1 (! REG4 [0] $end
$var wire 1 )! REG5 [7] $end
$var wire 1 *! REG5 [6] $end
$var wire 1 +! REG5 [5] $end
$var wire 1 ,! REG5 [4] $end
$var wire 1 -! REG5 [3] $end
$var wire 1 .! REG5 [2] $end
$var wire 1 /! REG5 [1] $end
$var wire 1 0! REG5 [0] $end
$var integer 32 n! i $end
$upscope $end

$scope module U0_ALU $end
$var parameter 32 o! Data_bus_width $end
$var parameter 32 p! ALU_FUNC_width $end
$var wire 1 _ A [7] $end
$var wire 1 ` A [6] $end
$var wire 1 a A [5] $end
$var wire 1 b A [4] $end
$var wire 1 c A [3] $end
$var wire 1 d A [2] $end
$var wire 1 e A [1] $end
$var wire 1 f A [0] $end
$var wire 1 g B [7] $end
$var wire 1 h B [6] $end
$var wire 1 i B [5] $end
$var wire 1 j B [4] $end
$var wire 1 k B [3] $end
$var wire 1 l B [2] $end
$var wire 1 m B [1] $end
$var wire 1 n B [0] $end
$var wire 1 ?! ALU_FUN [3] $end
$var wire 1 @! ALU_FUN [2] $end
$var wire 1 A! ALU_FUN [1] $end
$var wire 1 B! ALU_FUN [0] $end
$var wire 1 1! Enable $end
$var wire 1 3! CLK $end
$var wire 1 P RST $end
$var reg 8 q! ALU_OUT [7:0] $end
$var reg 1 r! OUT_VALID $end
$upscope $end

$scope module U0_UART_TX $end
$var wire 1 7! P_DATA [7] $end
$var wire 1 8! P_DATA [6] $end
$var wire 1 9! P_DATA [5] $end
$var wire 1 :! P_DATA [4] $end
$var wire 1 ;! P_DATA [3] $end
$var wire 1 <! P_DATA [2] $end
$var wire 1 =! P_DATA [1] $end
$var wire 1 >! P_DATA [0] $end
$var wire 1 4! DATA_VALID $end
$var wire 1 '! Configuration [1] $end
$var wire 1 (! Configuration [0] $end
$var wire 1 6! CLK $end
$var wire 1 P RST $end
$var wire 1 C S_DATA $end
$var wire 1 D Busy $end
$var wire 1 s! Parity_bit $end
$var wire 1 t! DATA $end
$var wire 1 u! En_Data $end
$var wire 1 v! Finish_Data_Transmission $end
$var wire 1 w! Load_Data_En $end

$scope module P1 $end
$var wire 1 7! P_DATA [7] $end
$var wire 1 8! P_DATA [6] $end
$var wire 1 9! P_DATA [5] $end
$var wire 1 :! P_DATA [4] $end
$var wire 1 ;! P_DATA [3] $end
$var wire 1 <! P_DATA [2] $end
$var wire 1 =! P_DATA [1] $end
$var wire 1 >! P_DATA [0] $end
$var wire 1 '! Configuration [1] $end
$var wire 1 (! Configuration [0] $end
$var wire 1 6! CLK $end
$var wire 1 P RST $end
$var wire 1 w! Load_Data_En $end
$var reg 1 x! Parity_bit $end
$upscope $end

$scope module CD1 $end
$var wire 1 u! En $end
$var wire 1 6! CLK $end
$var wire 1 P RST $end
$var wire 1 v! Finish_Data_Transmission $end
$var reg 4 y! Counter [3:0] $end
$upscope $end

$scope module S1 $end
$var wire 1 7! P_DATA [7] $end
$var wire 1 8! P_DATA [6] $end
$var wire 1 9! P_DATA [5] $end
$var wire 1 :! P_DATA [4] $end
$var wire 1 ;! P_DATA [3] $end
$var wire 1 <! P_DATA [2] $end
$var wire 1 =! P_DATA [1] $end
$var wire 1 >! P_DATA [0] $end
$var wire 1 6! CLK $end
$var wire 1 P RST $end
$var wire 1 w! Load_Data_en $end
$var reg 1 z! DATA $end
$var reg 8 {! Parallel_Data [7:0] $end
$upscope $end

$scope module FSM $end
$var parameter 3 |! IDLE_STATE $end
$var parameter 3 }! TRANSMIT_START $end
$var parameter 3 ~! TRANSMIT_DATA $end
$var parameter 3 !" TRANSMIT_PARITY $end
$var parameter 3 "" TRANSMIT_STOP $end
$var wire 1 t! DATA $end
$var wire 1 4! DATA_VALID $end
$var wire 1 s! Parity_bit $end
$var wire 1 (! Parity_en $end
$var wire 1 v! Finish_Data_Transmission $end
$var wire 1 6! CLK $end
$var wire 1 P RST $end
$var reg 1 #" S_DATA $end
$var reg 1 $" Busy $end
$var reg 1 %" En_Data_Counter $end
$var reg 1 &" Load_Data_en $end
$var reg 3 '" Current_state [2:0] $end
$var reg 3 (" Next_state [2:0] $end
$upscope $end
$upscope $end

$scope module U0_CLK_GATE $end
$var wire 1 2! CLK_EN $end
$var wire 1 O CLK $end
$var wire 1 3! GATED_CLK $end
$var reg 1 )" Latch_Out $end
$upscope $end

$scope module U0_ClkDiv $end
$var parameter 32 *" RATIO_WD $end
$var wire 1 O i_ref_clk $end
$var wire 1 P i_rst_en $end
$var wire 1 N i_clk_en $end
$var wire 1 )! i_div_ratio [7] $end
$var wire 1 *! i_div_ratio [6] $end
$var wire 1 +! i_div_ratio [5] $end
$var wire 1 ,! i_div_ratio [4] $end
$var wire 1 -! i_div_ratio [3] $end
$var wire 1 .! i_div_ratio [2] $end
$var wire 1 /! i_div_ratio [1] $end
$var wire 1 0! i_div_ratio [0] $end
$var wire 1 6! o_div_clk $end
$var reg 3 +" count [2:0] $end
$var wire 1 ," edge_flip_half [2] $end
$var wire 1 -" edge_flip_half [1] $end
$var wire 1 ." edge_flip_half [0] $end
$var wire 1 /" edge_flip_full [2] $end
$var wire 1 0" edge_flip_full [1] $end
$var wire 1 1" edge_flip_full [0] $end
$var reg 1 2" div_clk $end
$var reg 1 3" odd_edge_tog $end
$var wire 1 4" is_one $end
$var wire 1 5" is_zero $end
$var wire 1 6" clk_en $end
$var wire 1 7" is_odd $end

$scope begin counter_proc $end
$upscope $end
$upscope $end
$upscope $end
$upscope $end
$enddefinitions $end
#0
$dumpvars
x0
x1
bx 2
03
14
05
16
07
08
b0 9
b0 :
bx N!
xb!
bx c!
xd!
xe!
xf!
bx g!
bx h!
b0 i!
bx m!
bx q!
xr!
xx!
bx y!
xz!
bx {!
x#"
x$"
x%"
x&"
bx '"
bx ("
x)"
bx +"
x2"
x3"
bx F
bx G
b110010 !
b101 "
b1000 #
b100 $
b100 %
b111 &
b10000 '
b10101 (
b100011 )
b1011 *
b1010000 +
b1000 J
b100 K
b100 L
b0 O!
b1 P!
b10 Q!
b11 R!
b100 S!
b101 T!
b110 U!
b111 V!
b1000 W!
b1001 X!
b1010 Y!
b1011 Z!
b1100 [!
b1101 \!
b1110 ]!
b1111 ^!
b10000 _!
b10001 `!
b10010 a!
b1000 j!
b100 k!
b10000 l!
b1000 o!
b100 p!
b0 |!
b1 }!
b11 ~!
b10 !"
b110 ""
b100 *"
bx ,
bx -
bx .
bx /
bx n!
bx H
bx I
xB
xA
x@
x?
x>
x=
x<
x;
xC
xD
xE
xf
xe
xd
xc
xb
xa
x`
x_
xn
xm
xl
xk
xj
xi
xh
xg
xv
xu
xt
xs
xr
xq
xp
xo
x~
x}
x|
x{
xz
xy
xx
xw
x(!
x'!
x&!
x%!
x$!
x#!
x"!
x!!
x0!
x/!
x.!
x-!
x,!
x+!
x*!
x)!
x1!
x2!
03!
x4!
z5!
x6!
x>!
x=!
x<!
x;!
x:!
x9!
x8!
x7!
xB!
xA!
x@!
x?!
xG!
xF!
xE!
xD!
xC!
xH!
xM!
xL!
xK!
xJ!
xI!
xs!
xt!
xu!
xv!
xw!
x."
x-"
x,"
x1"
x0"
x/"
x4"
x5"
x6"
x7"
1N
0M
0^
0]
0\
0[
0Z
0Y
0X
0W
0V
0U
0T
0S
0Q
0R
1P
0O
$end
#10000000000
06
0P
b0 n!
b1 n!
b10 n!
b11 n!
b100 n!
b101 n!
b110 n!
b111 n!
b1000 n!
b1001 n!
b1010 n!
b1011 n!
b1100 n!
b1101 n!
b1110 n!
b1111 n!
b10000 n!
b0 N!
b0 h!
b0 q!
0r!
0x!
b0 y!
b0 {!
b0 '"
b0 +"
02"
13"
0>!
0=!
0<!
0;!
0:!
09!
08!
07!
0f
0e
0d
0c
0b
0a
0`
0_
0n
0m
0l
0k
0j
0i
0h
0g
00!
0/!
0.!
0-!
0,!
0+!
0*!
0)!
07"
04"
15"
1."
1-"
1,"
01"
00"
0/"
06"
0v
0u
0t
0s
0r
0q
0p
0o
0~
0}
0|
0{
0z
0y
0x
0w
0(!
0'!
0&!
0%!
0$!
0#!
0"!
0!!
0M!
0L!
0K!
0J!
0I!
04!
0s!
0v!
06!
b0 ("
0$"
1#"
0%"
0&"
0b!
b0 c!
0d!
1e!
0f!
b0 g!
1C
0u!
0w!
01!
1E
0H!
0G!
0F!
0E!
0D!
0C!
0B!
0A!
0@!
0?!
0D
02!
0)"
#35000000000
16
b0 ,
b0 .
b1010010000000000100 F
1P
#50000000000
15
1O
16!
0z!
0t!
#100000000000
05
0O
06!
b100 :
17
04
11
b10 2
b1 .
b1010010000100000011 F
1\
1Q
0N
#150000000000
15
1O
16!
1d
#200000000000
05
0O
06!
b11 :
b1 9
b10 .
b1010010001000000011 F
1V
1^
1]
0\
#250000000000
15
1O
16!
1n
1m
#300000000000
05
0O
06!
b10 9
b11 .
b1010010001100000000 F
0V
1U
#350000000000
15
1O
16!
1v
1u
#400000000000
05
0O
06!
b0 :
b11 9
b100 .
b1010010010000000001 F
1V
0^
0]
#450000000000
15
1O
16!
#500000000000
05
0O
06!
b1 :
b100 9
b101 .
b1010010010100000001 F
0V
0U
1T
1^
#550000000000
15
1O
16!
1(!
#600000000000
05
0O
06!
b101 9
b110 .
b1011100000000000000 F
1V
#650000000000
15
1O
16!
10!
17"
14"
05"
#700000000000
05
0O
06!
b0 :
b0 9
07
14
13
b111 .
b0 /
0V
0T
0^
0Q
1N
1M
b10 i!
#750000000000
15
1O
16!
b10 h!
b10010 i!
1b!
1d!
0e!
1f!
b10 g!
11!
0E
1H!
1F!
12!
#800000000000
05
0O
06!
1)"
#850000000000
15
1O
16!
13!
b111 q!
1r!
b10 N!
b10010 h!
1>!
1=!
1<!
14!
1L!
b1 ("
1&"
b1 i!
0b!
0f!
b0 g!
1w!
01!
0H!
0F!
#900000000000
05
0O
06!
03!
#950000000000
15
1O
16!
13!
b0 q!
0r!
1x!
b111 {!
b1 '"
b1 h!
0>!
0=!
0<!
04!
1s!
b11 i!
0d!
b11 ("
1$"
0#"
0&"
0C
0w!
02!
1D
b1 i!
b11000001110 G
b1 H
b1 I
00
b0 -
#1000000000000
05
0O
06!
03!
b1 -
0)"
#1050000000000
15
1O
16!
b11 {!
1z!
b11 '"
1t!
1#"
1%"
1C
1u!
#1100000000000
05
0O
06!
b10 -
#1150000000000
15
1O
16!
b1 y!
b1 {!
#1200000000000
05
0O
06!
b11 -
#1250000000000
15
1O
16!
b10 y!
b0 {!
#1300000000000
05
0O
06!
b100 -
#1350000000000
15
1O
16!
b11 y!
0z!
0t!
0#"
0C
#1400000000000
05
0O
06!
b101 -
#1450000000000
15
1O
16!
b100 y!
#1500000000000
05
0O
06!
b110 -
#1550000000000
15
1O
16!
b101 y!
#1600000000000
05
0O
06!
b111 -
#1650000000000
15
1O
16!
b110 y!
#1700000000000
05
0O
06!
b1000 -
#1750000000000
15
1O
16!
b111 y!
1v!
b10 ("
#1800000000000
05
0O
06!
b1001 -
#1850000000000
15
1O
16!
b1000 y!
b10 '"
0v!
b110 ("
1#"
0%"
1C
0u!
#1900000000000
05
0O
06!
b1010 -
#1950000000000
15
1O
16!
b0 y!
b110 '"
b0 ("
#2000000000000
05
0O
06!
b1011 -
b1 /
#2050000000000
15
1O
16!
b0 '"
0$"
0D
b11 i!
#2100000000000
05
0O
06!
#2150000000000
15
1O
16!
b11 h!
b10010 i!
1b!
b1 c!
1d!
1f!
b11 g!
11!
1H!
1G!
1F!
1B!
12!
#2200000000000
05
0O
06!
1)"
#2250000000000
15
1O
16!
13!
b1 q!
1r!
b11 N!
b10010 h!
1>!
14!
1M!
b1 ("
1&"
b1 i!
0b!
b0 c!
0f!
b0 g!
1w!
01!
0H!
0G!
0F!
0B!
#2300000000000
05
0O
06!
03!
#2350000000000
15
1O
16!
13!
b0 q!
0r!
b1 {!
b1 '"
b1 h!
0>!
04!
b100 i!
0d!
b11 ("
1$"
0#"
0&"
0C
0w!
02!
1D
b1 i!
b11000000010 G
b10 I
b0 -
#2400000000000
05
0O
06!
03!
b1 -
0)"
#2450000000000
15
1O
16!
b0 {!
1z!
b11 '"
1t!
1#"
1%"
1C
1u!
#2500000000000
05
0O
06!
b10 -
#2550000000000
15
1O
16!
b1 y!
0z!
0t!
0#"
0C
#2600000000000
05
0O
06!
b11 -
#2650000000000
15
1O
16!
b10 y!
#2700000000000
05
0O
06!
b100 -
#2750000000000
15
1O
16!
b11 y!
#2800000000000
05
0O
06!
b101 -
#2850000000000
15
1O
16!
b100 y!
#2900000000000
05
0O
06!
b110 -
#2950000000000
15
1O
16!
b101 y!
#3000000000000
05
0O
06!
b111 -
#3050000000000
15
1O
16!
b110 y!
#3100000000000
05
0O
06!
b1000 -
#3150000000000
15
1O
16!
b111 y!
1v!
b10 ("
#3200000000000
05
0O
06!
b1001 -
#3250000000000
15
1O
16!
b1000 y!
b10 '"
0v!
b110 ("
1#"
0%"
1C
0u!
#3300000000000
05
0O
06!
b1010 -
#3350000000000
15
1O
16!
b0 y!
b110 '"
b0 ("
#3400000000000
05
0O
06!
b1011 -
b10 /
b1 ,
#3450000000000
15
1O
16!
b0 '"
0$"
0D
b100 i!
#3500000000000
05
0O
06!
#3550000000000
15
1O
16!
b100 h!
b101 i!
b100 g!
1E!
#3600000000000
05
0O
06!
#3650000000000
15
1O
16!
b101 h!
b110 i!
b101 g!
1G!
#3700000000000
05
0O
06!
#3750000000000
15
1O
16!
b110 h!
b111 i!
b110 g!
0G!
1F!
#3800000000000
05
0O
06!
#3850000000000
15
1O
16!
b111 h!
b1000 i!
b111 g!
1G!
#3900000000000
05
0O
06!
#3950000000000
15
1O
16!
b1000 h!
b1001 i!
b1000 g!
0G!
0F!
0E!
1D!
#4000000000000
05
0O
06!
#4050000000000
15
1O
16!
b1001 h!
b1010 i!
b1001 g!
1G!
#4100000000000
05
0O
06!
#4150000000000
15
1O
16!
b1010 h!
b1011 i!
b1000 c!
b1010 g!
0G!
1F!
1?!
#4200000000000
05
0O
06!
#4250000000000
15
1O
16!
b1011 h!
b1100 i!
b0 c!
b1011 g!
1G!
0?!
#4300000000000
05
0O
06!
#4350000000000
15
1O
16!
b1100 h!
b1101 i!
b1100 g!
0G!
0F!
1E!
#4400000000000
05
0O
06!
#4450000000000
15
1O
16!
b1101 h!
b1110 i!
b1101 g!
1G!
#4500000000000
05
0O
06!
#4550000000000
15
1O
16!
b1110 h!
b1111 i!
b1110 g!
0G!
1F!
#4600000000000
05
0O
06!
#4650000000000
15
1O
16!
b1111 h!
b10000 i!
b1111 g!
1G!
#4700000000000
05
0O
06!
#4750000000000
15
1O
16!
b10000 h!
b10001 i!
b10000 g!
0G!
0F!
0E!
0D!
1C!
#4800000000000
05
0O
06!
#4850000000000
15
1O
16!
b10001 h!
b0 i!
b10001 g!
1G!
#4900000000000
05
0O
06!
#4950000000000
15
1O
16!
b0 h!
b10 i!
1e!
b0 g!
1E
0G!
0C!
b0 .
b1010010000000001111 F
#5000000000000
05
0O
06!
b1111 :
17
04
03
b1 .
b1010010000100000011 F
1^
1]
1\
1[
1Q
0N
0M
b0 i!
#5050000000000
15
1O
16!
1f
1e
1c
#5100000000000
05
0O
06!
b11 :
b1 9
b10 .
b1010010001000001001 F
1V
0\
0[
#5150000000000
15
1O
16!
#5200000000000
05
0O
06!
b1001 :
b10 9
b11 .
b1010010001100000000 F
0V
1U
0]
1[
#5250000000000
15
1O
16!
0u
1s
#5300000000000
05
0O
06!
b0 :
b11 9
b100 .
b1010010010000000011 F
1V
0^
0[
#5350000000000
15
1O
16!
#5400000000000
05
0O
06!
b11 :
b100 9
b101 .
b1010010010100000001 F
0V
0U
1T
1^
1]
#5450000000000
15
1O
16!
1'!
#5500000000000
05
0O
06!
b1 :
b101 9
b110 .
b1011100000000000000 F
1V
0]
#5550000000000
15
1O
16!
#5600000000000
05
0O
06!
b0 :
b0 9
07
14
13
b111 .
b0 /
0V
0T
0^
0Q
1N
1M
b10 i!
#5650000000000
15
1O
16!
b10 h!
b10010 i!
1b!
1d!
0e!
1f!
b10 g!
11!
0E
1H!
1F!
12!
#5700000000000
05
0O
06!
1)"
#5750000000000
15
1O
16!
13!
b10010 q!
1r!
b10 N!
b10010 h!
1=!
1:!
14!
0M!
b1 ("
1&"
b1 i!
0b!
0f!
b0 g!
1w!
01!
0H!
0F!
#5800000000000
05
0O
06!
03!
#5850000000000
15
1O
16!
13!
b0 q!
0r!
b10010 {!
b1 '"
b1 h!
0=!
0:!
04!
b11 i!
0d!
b11 ("
1$"
0#"
0&"
0C
0w!
02!
1D
b1 i!
b11000100100 G
b10 H
b1 I
b0 -
#5900000000000
05
0O
06!
03!
b1 -
0)"
#5950000000000
15
1O
16!
b1001 {!
b11 '"
1%"
1u!
#6000000000000
05
0O
06!
b10 -
#6050000000000
15
1O
16!
b1 y!
b100 {!
1z!
1t!
1#"
1C
#6100000000000
05
0O
06!
b11 -
#6150000000000
15
1O
16!
b10 y!
b10 {!
0z!
0t!
0#"
0C
#6200000000000
05
0O
06!
b100 -
#6250000000000
15
1O
16!
b11 y!
b1 {!
#6300000000000
05
0O
06!
b101 -
#6350000000000
15
1O
16!
b100 y!
b0 {!
1z!
1t!
1#"
1C
#6400000000000
05
0O
06!
b110 -
#6450000000000
15
1O
16!
b101 y!
0z!
0t!
0#"
0C
#6500000000000
05
0O
06!
b111 -
#6550000000000
15
1O
16!
b110 y!
#6600000000000
05
0O
06!
b1000 -
#6650000000000
15
1O
16!
b111 y!
1v!
b10 ("
#6700000000000
05
0O
06!
b1001 -
